{
  "project_info": {
    "project_number": "301666632818",
    "firebase_url": "https://rawatv-232908.firebaseio.com",
    "project_id": "rawatv-232908",
    "storage_bucket": "rawatv-232908.appspot.com"
  },
  "client": [
    {
      "client_info": {
        "mobilesdk_app_id": "1:301666632818:android:a7ae3c07c3b602e4",
        "android_client_info": {
          "package_name": "com.apps2you.rawa"
        }
      },
      "oauth_client": [
        {
          "client_id": "301666632818-7bqr940ino8526vo171vms2t66o84btr.apps.googleusercontent.com",
          "client_type": 1,
          "android_info": {
            "package_name": "com.apps2you.rawa",
            "certificate_hash": "f63b461609d955cfcaef79e85431b7cd549d116e"
          }
        },
        {
          "client_id": "301666632818-9ftp9lq6r9rvhlhpe4untg5tk0oikjqh.apps.googleusercontent.com",
          "client_type": 1,
          "android_info": {
            "package_name": "com.apps2you.rawa",
            "certificate_hash": "1acac094543233543b2fa068ca10220b26e0562e"
          }
        },
        {
          "client_id": "301666632818-it6b3qpi7a3u59384fm4ng60kjikc337.apps.googleusercontent.com",
          "client_type": 3
        }
      ],
      "api_key": [
        {
          "current_key": "AIzaSyAcOU2bZuWmHkeSaFndXTbqZpcH2RcPCXs"
        }
      ],
      "services": {
        "appinvite_service": {
          "other_platform_oauth_client": [
            {
              "client_id": "301666632818-rrspdn49copesbqdma2htlfpum6iq2hd.apps.googleusercontent.com",
              "client_type": 3
            },
            {
              "client_id": "301666632818-mvngcmgujr2gb9tdjlssotj25recsml2.apps.googleusercontent.com",
              "client_type": 2,
              "ios_info": {
                "bundle_id": "com.apps2you.Rawa"
              }
            }
          ]
        }
      }
    }
  ],
  "configuration_version": "1"
}